{
    "isError": false,
    "responseResult": {
        "data": {
            "content": [
                {
                    "userId": 158,
                    "fcmUmGcsM": null,
                    "walletAccountM": null,
                    "roles": [],
                    "partners": [],
                    "departments": [],
                    "viewAlertses": [],
                    "firstName": "Rahul ",
                    "lastName": "dwivedi",
                    "contactAddress": null,
                    "phone": null,
                    "emailId": "apple9@gmail.com",
                    "login": "5453450000",
                    "passwrd": null,
                    "dateOfJoining": null,
                    "userType": "S",
                    "noOfAttempts": 0,
                    "status": "I",
                    "lastLogin": null,
                    "lastChangePasswordDate": 1458585000000,
                    "deviceBrand": null,
                    "deviceModel": null,
                    "deviceOSVersion": null,
                    "deviceIMEINumber": null,
                    "deviceMacID": null,
                    "randomKey": null,
                    "isVerified": "N",
                    "deviceBuildVersion": null,
                    "naTime": null,
                    "signUpStage": null,
                    "dateOfJoin": null,
                    "newUserFlag": null,
                    "deviceLock": true,
                    "userLockTime": null,
                    "phoneLock": "true",
                    "accessToken": null,
                    "refreshToken": null
                },
                {
                    "userId": 162,
                    "fcmUmGcsM": null,
                    "walletAccountM": null,
                    "roles": [],
                    "partners": [],
                    "departments": [],
                    "viewAlertses": [],
                    "firstName": "Rahul  dwivedi",
                    "lastName": "",
                    "contactAddress": null,
                    "phone": null,
                    "emailId": "apple9@gmail.com",
                    "login": "5453450000",
                    "passwrd": null,
                    "dateOfJoining": null,
                    "userType": "S",
                    "noOfAttempts": 0,
                    "status": "I",
                    "lastLogin": null,
                    "lastChangePasswordDate": 1458585000000,
                    "deviceBrand": null,
                    "deviceModel": null,
                    "deviceOSVersion": null,
                    "deviceIMEINumber": null,
                    "deviceMacID": null,
                    "randomKey": null,
                    "isVerified": "N",
                    "deviceBuildVersion": null,
                    "naTime": null,
                    "signUpStage": null,
                    "dateOfJoin": null,
                    "newUserFlag": null,
                    "deviceLock": true,
                    "userLockTime": null,
                    "phoneLock": "true",
                    "accessToken": null,
                    "refreshToken": null
                },
                {
                    "userId": 212,
                    "fcmUmGcsM": null,
                    "walletAccountM": null,
                    "roles": [],
                    "partners": [],
                    "departments": [],
                    "viewAlertses": [],
                    "firstName": "gdfg",
                    "lastName": "",
                    "contactAddress": null,
                    "phone": null,
                    "emailId": "a645jj@gmail.com",
                    "login": "5347868768",
                    "passwrd": null,
                    "dateOfJoining": null,
                    "userType": "S",
                    "noOfAttempts": 0,
                    "status": "D",
                    "lastLogin": null,
                    "lastChangePasswordDate": 1458585000000,
                    "deviceBrand": null,
                    "deviceModel": null,
                    "deviceOSVersion": null,
                    "deviceIMEINumber": null,
                    "deviceMacID": null,
                    "randomKey": null,
                    "isVerified": "N",
                    "deviceBuildVersion": null,
                    "naTime": null,
                    "signUpStage": null,
                    "dateOfJoin": null,
                    "newUserFlag": null,
                    "deviceLock": true,
                    "userLockTime": null,
                    "phoneLock": "true",
                    "accessToken": null,
                    "refreshToken": null
                },
                {
                    "userId": 209,
                    "fcmUmGcsM": null,
                    "walletAccountM": null,
                    "roles": [],
                    "partners": [],
                    "departments": [],
                    "viewAlertses": [],
                    "firstName": "dfgdfh",
                    "lastName": "hgfh",
                    "contactAddress": null,
                    "phone": null,
                    "emailId": "gfg54@gmail.com",
                    "login": "7563458768",
                    "passwrd": null,
                    "dateOfJoining": null,
                    "userType": "S",
                    "noOfAttempts": 0,
                    "status": "D",
                    "lastLogin": null,
                    "lastChangePasswordDate": 1458585000000,
                    "deviceBrand": null,
                    "deviceModel": null,
                    "deviceOSVersion": null,
                    "deviceIMEINumber": null,
                    "deviceMacID": null,
                    "randomKey": null,
                    "isVerified": "N",
                    "deviceBuildVersion": null,
                    "naTime": null,
                    "signUpStage": null,
                    "dateOfJoin": null,
                    "newUserFlag": null,
                    "deviceLock": true,
                    "userLockTime": null,
                    "phoneLock": "true",
                    "accessToken": null,
                    "refreshToken": null
                },
                {
                    "userId": 470,
                    "fcmUmGcsM": null,
                    "walletAccountM": null,
                    "roles": [],
                    "partners": [],
                    "departments": [],
                    "viewAlertses": [],
                    "firstName": "fdfd",
                    "lastName": "fd",
                    "contactAddress": null,
                    "phone": null,
                    "emailId": null,
                    "login": "4344333333",
                    "passwrd": null,
                    "dateOfJoining": null,
                    "userType": "S",
                    "noOfAttempts": 0,
                    "status": "D",
                    "lastLogin": null,
                    "lastChangePasswordDate": null,
                    "deviceBrand": null,
                    "deviceModel": null,
                    "deviceOSVersion": null,
                    "deviceIMEINumber": null,
                    "deviceMacID": null,
                    "randomKey": null,
                    "isVerified": "N",
                    "deviceBuildVersion": null,
                    "naTime": null,
                    "signUpStage": null,
                    "dateOfJoin": null,
                    "newUserFlag": null,
                    "deviceLock": null,
                    "userLockTime": null,
                    "phoneLock": null,
                    "accessToken": null,
                    "refreshToken": null
                }
            ],
            "pageable": {
                "sort": {
                    "sorted": false,
                    "unsorted": true,
                    "empty": true
                },
                "pageSize": 5,
                "pageNumber": 0,
                "offset": 0,
                "unpaged": false,
                "paged": true
            },
            "totalElements": 620,
            "totalPages": 124,
            "last": false,
            "first": true,
            "sort": {
                "sorted": false,
                "unsorted": true,
                "empty": true
            },
            "numberOfElements": 5,
            "size": 5,
            "number": 0,
            "empty": false
        }
    },
    "responseError": null
}